{
	"categorias":[
		{
			"nombre_categoria":"Sorprende a esa persona",
			"filtros": [
				{
					"nombre_filtro": "Deporte1"
				},
				{
					"nombre_filtro": "Deporte1"
				},
				{
					"nombre_filtro": "Deporte1"
				}
			]
		},
		{
			"nombre_categoria":"Días festivos",
			"filtros": [
				{
					"nombre_filtro": "Deporte1"
				},
				{
					"nombre_filtro": "Deporte1"
				},
				{
					"nombre_filtro": "Deporte1"
				}
			]
		}
	]
}